[gd_resource type="DynamicFont" load_steps=2 format=2]

[ext_resource path="res://Fonts/Roboto/Roboto-Black.ttf" type="DynamicFontData" id=1]

[resource]
size = 22
use_filter = true
font_data = ExtResource( 1 )
