[gd_scene load_steps=3 format=2]

[ext_resource path="res://Frames/frame.tscn" type="PackedScene" id=1]
[ext_resource path="res://Frames/Emails/email_view.gd" type="Script" id=2]

[node name="EmailView" instance=ExtResource( 1 )]
script = ExtResource( 2 )

[node name="UI" parent="." index="1"]
margin_left = -242.0
margin_top = -208.0
margin_right = 265.0
margin_bottom = 218.0
mouse_filter = 1

[node name="Header" parent="UI" index="0"]
margin_right = 507.0

[node name="Content" parent="UI" index="1"]
margin_right = 507.0
margin_bottom = 426.0

[node name="ScrollContainer" type="ScrollContainer" parent="UI/Content" index="0"]
anchor_right = 1.0
anchor_bottom = 1.0
scroll_horizontal_enabled = false
__meta__ = {
"_edit_use_anchors_": false
}

[node name="VBoxContainer" type="VBoxContainer" parent="UI/Content/ScrollContainer" index="0" groups=["entry_container"]]
margin_right = 507.0
margin_bottom = 400.0
rect_min_size = Vector2( 0, 400 )
size_flags_horizontal = 3
__meta__ = {
"_edit_use_anchors_": false
}
