[gd_scene load_steps=3 format=2]

[ext_resource path="res://Frames/frame.tscn" type="PackedScene" id=1]
[ext_resource path="res://Frames/Preview/preview.gd" type="Script" id=2]

[node name="Frame" instance=ExtResource( 1 )]
script = ExtResource( 2 )

[node name="StaticBody2D" parent="." index="0"]
position = Vector2( 50, 50 )

[node name="Header" parent="UI" index="0"]
visible = false

[node name="Content" parent="UI" index="1"]
margin_top = 0.0

[node name="TextureRect" type="TextureRect" parent="UI/Content" index="0"]
anchor_right = 1.0
anchor_bottom = 1.0
expand = true
stretch_mode = 6
__meta__ = {
"_edit_use_anchors_": false
}
