[gd_resource type="Resource" load_steps=7 format=2]

[ext_resource path="res://Site/frame_collection.gd" type="Script" id=1]
[ext_resource path="res://Frames/Emails/email_view.tscn" type="PackedScene" id=2]
[ext_resource path="res://Frames/DBView/db_entry.tscn" type="PackedScene" id=3]
[ext_resource path="res://Frames/Login/login_demo.tscn" type="PackedScene" id=4]
[ext_resource path="res://Frames/Emails/email_entry.tscn" type="PackedScene" id=5]
[ext_resource path="res://Frames/DBView/db_view.tscn" type="PackedScene" id=6]

[resource]
script = ExtResource( 1 )
database_view = ExtResource( 6 )
database_entry = ExtResource( 3 )
login_demo = ExtResource( 4 )
email_view = ExtResource( 2 )
email_entry = ExtResource( 5 )
