[gd_resource type="Resource" load_steps=4 format=2]

[ext_resource path="res://Source/scene_list.gd" type="Script" id=1]
[ext_resource path="res://Site/Websites/Chattach/ws_chattach.tscn" type="PackedScene" id=2]
[ext_resource path="res://Site/Websites/Infinity/ws_infinity.tscn" type="PackedScene" id=3]

[resource]
script = ExtResource( 1 )
scenes = [ ExtResource( 2 ), ExtResource( 3 ) ]
