[gd_resource type="Resource" load_steps=2 format=2]

[ext_resource path="res://Database/violation_chance_map.gd" type="Script" id=1]

[resource]
script = ExtResource( 1 )
violations = {
0: 0.5,
1: 0.5,
2: 0.5,
3: 0.5,
4: 0.5,
5: 0.5,
6: 0.5,
7: 0.5,
8: 0.5,
9: 0.5,
10: 0.5,
11: 0.5,
12: 0.5,
13: 0.5,
14: 0.5
}
