[gd_resource type="Resource" load_steps=2 format=2]

[ext_resource path="res://Levels/level_settings.gd" type="Script" id=1]

[resource]
script = ExtResource( 1 )
time = 120
user_count = 10
violations = [ 0, 3, 7, 4, 6, 5 ]
