[gd_scene load_steps=2 format=2]

[ext_resource path="res://Frames/frame.tscn" type="PackedScene" id=1]

[node name="Frame" instance=ExtResource( 1 )]

[node name="UI" parent="." index="1"]
collapsed = true

[node name="Header" parent="UI" index="0"]
margin_bottom = 0.0

[node name="Content" parent="UI" index="1"]
margin_top = 0.0
