[gd_resource type="Resource" load_steps=2 format=2]

[ext_resource path="res://Database/email_outline.gd" type="Script" id=1]

[resource]
script = ExtResource( 1 )
subjects = [ "I noticed some errors in your data on me" ]
bodies = [ "I've noticed on the bank statements you sent me that {fields} were wrong.
Vould you please correct them to {corrections}.

{user_name}" ]
