[gd_resource type="Resource" load_steps=2 format=2]

[ext_resource path="res://Database/email_outline.gd" type="Script" id=1]

[resource]
script = ExtResource( 1 )
subjects = [ "About my Data", "Are you processing my data" ]
bodies = [ "Hello

I'm beginning to worry about what you are doing with my data.
Would you let me know.

{username}", "I've been seeing some unsettling stuff appear in my feed.
Could you let me know what you are doing with my data?" ]
