[gd_scene load_steps=3 format=2]

[ext_resource path="res://Stage/clock.gd" type="Script" id=1]
[ext_resource path="res://Stage/fnt_countdown.tres" type="DynamicFont" id=2]

[node name="Countdown" type="Label" groups=["countdown"]]
anchor_right = 1.0
anchor_bottom = 1.0
margin_left = -1.0
margin_right = -1.0
custom_fonts/font = ExtResource( 2 )
text = "00:00"
align = 1
script = ExtResource( 1 )
__meta__ = {
"_edit_use_anchors_": false
}

[node name="Timer" type="Timer" parent="."]
one_shot = true

[connection signal="timeout" from="Timer" to="." method="_on_timeout"]
